\boolfalse {citerequest}\boolfalse {citetracker}\boolfalse {pagetracker}\boolfalse {backtracker}\relax 
\babel@toc {czech}{}
\defcounter {refsection}{0}\relax 
\contentsline {chapter}{\numberline {1}Zad\IeC {\'a}n\IeC {\'\i }}{3}{chapter.1}
\defcounter {refsection}{0}\relax 
\contentsline {chapter}{\numberline {2}Anal\IeC {\'y}za probl\IeC {\'e}mu}{4}{chapter.2}
\defcounter {refsection}{0}\relax 
\contentsline {section}{\numberline {2.1}Generov\IeC {\'a}n\IeC {\'\i } dat}{4}{section.2.1}
\defcounter {refsection}{0}\relax 
\contentsline {section}{\numberline {2.2}Simulace}{5}{section.2.2}
\defcounter {refsection}{0}\relax 
\contentsline {subsection}{\numberline {2.2.1}Generov\IeC {\'a}n\IeC {\'\i } denn\IeC {\'\i }ch po\IeC {\v z}adavk\IeC {\r u} na boxy}{5}{subsection.2.2.1}
\defcounter {refsection}{0}\relax 
\contentsline {subsection}{\numberline {2.2.2}Rozes\IeC {\'\i }l\IeC {\'a}n\IeC {\'\i } aut po pobo\IeC {\v c}k\IeC {\'a}ch}{5}{subsection.2.2.2}
\defcounter {refsection}{0}\relax 
\contentsline {chapter}{\numberline {3}N\IeC {\'a}vrh programu}{6}{chapter.3}
\defcounter {refsection}{0}\relax 
\contentsline {section}{\numberline {3.1}Slo\IeC {\v z}en\IeC {\'\i } instituc\IeC {\'\i }}{6}{section.3.1}
\defcounter {refsection}{0}\relax 
\contentsline {section}{\numberline {3.2}N\IeC {\'a}vrh simulace}{7}{section.3.2}
\defcounter {refsection}{0}\relax 
\contentsline {chapter}{\numberline {4}U\IeC {\v z}ivatelsk\IeC {\'a} p\IeC {\v r}\IeC {\'\i }ru\IeC {\v c}ka}{8}{chapter.4}
\defcounter {refsection}{0}\relax 
\contentsline {section}{\numberline {4.1}Menu a jeho prvky}{9}{section.4.1}
\defcounter {refsection}{0}\relax 
\contentsline {section}{\numberline {4.2}Hlavn\IeC {\'\i } \IeC {\v c}\IeC {\'a}st okna aplikace}{11}{section.4.2}
\defcounter {refsection}{0}\relax 
\contentsline {chapter}{\numberline {5}Z\IeC {\'a}v\IeC {\v e}r}{12}{chapter.5}
