\boolfalse {citerequest}\boolfalse {citetracker}\boolfalse {pagetracker}\boolfalse {backtracker}\relax 
\babel@toc {czech}{}
\defcounter {refsection}{0}\relax 
\addvspace {10\p@ }
\defcounter {refsection}{0}\relax 
\addvspace {10\p@ }
\defcounter {refsection}{0}\relax 
\addvspace {10\p@ }
\defcounter {refsection}{0}\relax 
\contentsline {figure}{\numberline {3.1}{\ignorespaces UML diagram fina\IeC {\v c}n\IeC {\'\i }ch instituc\IeC {\'\i }\relax }}{6}{figure.caption.3}
\defcounter {refsection}{0}\relax 
\contentsline {figure}{\numberline {3.2}{\ignorespaces UML digram simulace\relax }}{7}{figure.caption.4}
\defcounter {refsection}{0}\relax 
\addvspace {10\p@ }
\defcounter {refsection}{0}\relax 
\contentsline {figure}{\numberline {4.1}{\ignorespaces N\IeC {\'a}hled aplikace\relax }}{8}{figure.caption.5}
\defcounter {refsection}{0}\relax 
\contentsline {figure}{\numberline {4.2}{\ignorespaces Uk\IeC {\'a}zka menu v aplikaci\relax }}{9}{figure.caption.6}
\defcounter {refsection}{0}\relax 
\contentsline {figure}{\numberline {4.3}{\ignorespaces Informa\IeC {\v c}n\IeC {\'\i } okna\relax }}{9}{figure.caption.7}
\defcounter {refsection}{0}\relax 
\contentsline {figure}{\numberline {4.4}{\ignorespaces Statistiky bank\relax }}{10}{figure.caption.8}
\defcounter {refsection}{0}\relax 
\contentsline {figure}{\numberline {4.5}{\ignorespaces Statistiky aut\relax }}{10}{figure.caption.9}
\defcounter {refsection}{0}\relax 
\contentsline {figure}{\numberline {4.6}{\ignorespaces Hlavn\IeC {\'\i } vizu\IeC {\'a}ln\IeC {\'\i } \IeC {\v c}\IeC {\'a}st aplikace\relax }}{11}{figure.caption.10}
\defcounter {refsection}{0}\relax 
\addvspace {10\p@ }
