\relax 
\providecommand\hyper@newdestlabel[2]{}
\catcode `"\active 
\catcode `-\active 
\providecommand\HyperFirstAtBeginDocument{\AtBeginDocument}
\HyperFirstAtBeginDocument{\ifx\hyper@anchor\@undefined
\global\let\oldcontentsline\contentsline
\gdef\contentsline#1#2#3#4{\oldcontentsline{#1}{#2}{#3}}
\global\let\oldnewlabel\newlabel
\gdef\newlabel#1#2{\newlabelxx{#1}#2}
\gdef\newlabelxx#1#2#3#4#5#6{\oldnewlabel{#1}{{#2}{#3}}}
\AtEndDocument{\ifx\hyper@anchor\@undefined
\let\contentsline\oldcontentsline
\let\newlabel\oldnewlabel
\fi}
\fi}
\global\let\hyper@last\relax 
\gdef\HyperFirstAtBeginDocument#1{#1}
\providecommand\HyField@AuxAddToFields[1]{}
\providecommand\HyField@AuxAddToCoFields[2]{}
\abx@aux@refcontext{nty/global//global/global}
\@writefile{toc}{\boolfalse {citerequest}\boolfalse {citetracker}\boolfalse {pagetracker}\boolfalse {backtracker}\relax }
\@writefile{lof}{\boolfalse {citerequest}\boolfalse {citetracker}\boolfalse {pagetracker}\boolfalse {backtracker}\relax }
\@writefile{lot}{\boolfalse {citerequest}\boolfalse {citetracker}\boolfalse {pagetracker}\boolfalse {backtracker}\relax }
\babel@aux{czech}{}
\@writefile{toc}{\defcounter {refsection}{0}\relax }\@writefile{toc}{\contentsline {chapter}{\numberline {1}Zad\IeC {\'a}n\IeC {\'\i }}{3}{chapter.1}}
\@writefile{lof}{\defcounter {refsection}{0}\relax }\@writefile{lof}{\addvspace {10\p@ }}
\@writefile{lot}{\defcounter {refsection}{0}\relax }\@writefile{lot}{\addvspace {10\p@ }}
\@writefile{toc}{\defcounter {refsection}{0}\relax }\@writefile{toc}{\contentsline {chapter}{\numberline {2}Anal\IeC {\'y}za probl\IeC {\'e}mu}{4}{chapter.2}}
\@writefile{lof}{\defcounter {refsection}{0}\relax }\@writefile{lof}{\addvspace {10\p@ }}
\@writefile{lot}{\defcounter {refsection}{0}\relax }\@writefile{lot}{\addvspace {10\p@ }}
\@writefile{toc}{\defcounter {refsection}{0}\relax }\@writefile{toc}{\contentsline {section}{\numberline {2.1}Generov\IeC {\'a}n\IeC {\'\i } dat}{4}{section.2.1}}
\@writefile{toc}{\defcounter {refsection}{0}\relax }\@writefile{toc}{\contentsline {section}{\numberline {2.2}Simulace}{5}{section.2.2}}
\@writefile{toc}{\defcounter {refsection}{0}\relax }\@writefile{toc}{\contentsline {subsection}{\numberline {2.2.1}Generov\IeC {\'a}n\IeC {\'\i } denn\IeC {\'\i }ch po\IeC {\v z}adavk\IeC {\r u} na boxy}{5}{subsection.2.2.1}}
\@writefile{toc}{\defcounter {refsection}{0}\relax }\@writefile{toc}{\contentsline {subsection}{\numberline {2.2.2}Rozes\IeC {\'\i }l\IeC {\'a}n\IeC {\'\i } aut po pobo\IeC {\v c}k\IeC {\'a}ch}{5}{subsection.2.2.2}}
\@writefile{toc}{\defcounter {refsection}{0}\relax }\@writefile{toc}{\contentsline {chapter}{\numberline {3}N\IeC {\'a}vrh programu}{6}{chapter.3}}
\@writefile{lof}{\defcounter {refsection}{0}\relax }\@writefile{lof}{\addvspace {10\p@ }}
\@writefile{lot}{\defcounter {refsection}{0}\relax }\@writefile{lot}{\addvspace {10\p@ }}
\@writefile{toc}{\defcounter {refsection}{0}\relax }\@writefile{toc}{\contentsline {section}{\numberline {3.1}Slo\IeC {\v z}en\IeC {\'\i } instituc\IeC {\'\i }}{6}{section.3.1}}
\@writefile{lof}{\defcounter {refsection}{0}\relax }\@writefile{lof}{\contentsline {figure}{\numberline {3.1}{\ignorespaces UML diagram fina\IeC {\v c}n\IeC {\'\i }ch instituc\IeC {\'\i }\relax }}{6}{figure.caption.3}}
\providecommand*\caption@xref[2]{\@setref\relax\@undefined{#1}}
\newlabel{fig:nodes}{{3.1}{6}{UML diagram finačních institucí\relax }{figure.caption.3}{}}
\@writefile{toc}{\defcounter {refsection}{0}\relax }\@writefile{toc}{\contentsline {section}{\numberline {3.2}N\IeC {\'a}vrh simulace}{7}{section.3.2}}
\@writefile{lof}{\defcounter {refsection}{0}\relax }\@writefile{lof}{\contentsline {figure}{\numberline {3.2}{\ignorespaces UML digram simulace\relax }}{7}{figure.caption.4}}
\newlabel{fig:simulation}{{3.2}{7}{UML digram simulace\relax }{figure.caption.4}{}}
\@writefile{toc}{\defcounter {refsection}{0}\relax }\@writefile{toc}{\contentsline {chapter}{\numberline {4}U\IeC {\v z}ivatelsk\IeC {\'a} p\IeC {\v r}\IeC {\'\i }ru\IeC {\v c}ka}{8}{chapter.4}}
\@writefile{lof}{\defcounter {refsection}{0}\relax }\@writefile{lof}{\addvspace {10\p@ }}
\@writefile{lot}{\defcounter {refsection}{0}\relax }\@writefile{lot}{\addvspace {10\p@ }}
\@writefile{lof}{\defcounter {refsection}{0}\relax }\@writefile{lof}{\contentsline {figure}{\numberline {4.1}{\ignorespaces N\IeC {\'a}hled aplikace\relax }}{8}{figure.caption.5}}
\newlabel{fig:app}{{4.1}{8}{Náhled aplikace\relax }{figure.caption.5}{}}
\@writefile{toc}{\defcounter {refsection}{0}\relax }\@writefile{toc}{\contentsline {section}{\numberline {4.1}Menu a jeho prvky}{9}{section.4.1}}
\newlabel{subfig:menu1}{{4.2a}{9}{Node info menu\relax }{figure.caption.6}{}}
\newlabel{sub@subfig:menu1}{{a}{9}{Node info menu\relax }{figure.caption.6}{}}
\newlabel{subfig:menu2}{{4.2b}{9}{Complete statistic menu\relax }{figure.caption.6}{}}
\newlabel{sub@subfig:menu2}{{b}{9}{Complete statistic menu\relax }{figure.caption.6}{}}
\@writefile{lof}{\defcounter {refsection}{0}\relax }\@writefile{lof}{\contentsline {figure}{\numberline {4.2}{\ignorespaces Uk\IeC {\'a}zka menu v aplikaci\relax }}{9}{figure.caption.6}}
\newlabel{fig:meny}{{4.2}{9}{Ukázka menu v aplikaci\relax }{figure.caption.6}{}}
\newlabel{subfig:carI}{{4.3a}{9}{Car info frame\relax }{figure.caption.7}{}}
\newlabel{sub@subfig:carI}{{a}{9}{Car info frame\relax }{figure.caption.7}{}}
\newlabel{subfig:inI}{{4.3b}{9}{Institute info frame\relax }{figure.caption.7}{}}
\newlabel{sub@subfig:inI}{{b}{9}{Institute info frame\relax }{figure.caption.7}{}}
\@writefile{lof}{\defcounter {refsection}{0}\relax }\@writefile{lof}{\contentsline {figure}{\numberline {4.3}{\ignorespaces Informa\IeC {\v c}n\IeC {\'\i } okna\relax }}{9}{figure.caption.7}}
\newlabel{fig:custNodeFrame}{{4.3}{9}{Informační okna\relax }{figure.caption.7}{}}
\@writefile{lof}{\defcounter {refsection}{0}\relax }\@writefile{lof}{\contentsline {figure}{\numberline {4.4}{\ignorespaces Statistiky bank\relax }}{10}{figure.caption.8}}
\newlabel{fig:stat1}{{4.4}{10}{Statistiky bank\relax }{figure.caption.8}{}}
\@writefile{lof}{\defcounter {refsection}{0}\relax }\@writefile{lof}{\contentsline {figure}{\numberline {4.5}{\ignorespaces Statistiky aut\relax }}{10}{figure.caption.9}}
\newlabel{fig:stat2}{{4.5}{10}{Statistiky aut\relax }{figure.caption.9}{}}
\@writefile{toc}{\defcounter {refsection}{0}\relax }\@writefile{toc}{\contentsline {section}{\numberline {4.2}Hlavn\IeC {\'\i } \IeC {\v c}\IeC {\'a}st okna aplikace}{11}{section.4.2}}
\@writefile{lof}{\defcounter {refsection}{0}\relax }\@writefile{lof}{\contentsline {figure}{\numberline {4.6}{\ignorespaces Hlavn\IeC {\'\i } vizu\IeC {\'a}ln\IeC {\'\i } \IeC {\v c}\IeC {\'a}st aplikace\relax }}{11}{figure.caption.10}}
\newlabel{fig:okno}{{4.6}{11}{Hlavní vizuální část aplikace\relax }{figure.caption.10}{}}
\@writefile{toc}{\defcounter {refsection}{0}\relax }\@writefile{toc}{\contentsline {chapter}{\numberline {5}Z\IeC {\'a}v\IeC {\v e}r}{12}{chapter.5}}
\@writefile{lof}{\defcounter {refsection}{0}\relax }\@writefile{lof}{\addvspace {10\p@ }}
\@writefile{lot}{\defcounter {refsection}{0}\relax }\@writefile{lot}{\addvspace {10\p@ }}
